# This is an example for RQMDv with the VDF potential

Main:numberOfEvents = 1  ! number of events to generate
Random:seed = 3668752

Cascade:TimeStepSize = 0.2
Cascade:TimeStep = 400

MeanField:mode=13   # =13:for large system =3 for small system
# EoS =21:VDF1     =22:VDF2     =23:VDF3
#     =24:VDF1+MD1 =25:VDF2+MD1 =26:VDF3+MD1
#     =27:VDF1+MD2 =28:VDF2+MD2 =29:VDF3+MD2
#     =30:VDF1+MD3 =31:VDF2+MD3 =32:VDF3+MD3
#MeanField:EoS= 24 
MeanField:EoS= 25

MeanField:rho0= 0.16  # saturation density

111:mayDecay = off    ! pi0
221:mayDecay = off    ! eta
311:mayDecay = off    ! K0
321:mayDecay = off    ! K+
#333:mayDecay = off    ! phi
3122:mayDecay = off   ! Lambda0
3212:mayDecay = off   ! Sigma0
3112:mayDecay = off   ! Sigma-
3222:mayDecay = off   ! Sigma+
3322:mayDecay = off   ! Xi0
3312:mayDecay = off   ! Xi-
3334:mayDecay = off   ! Omega-

Beams:beamA = 197Au
Beams:beamB = 197Au
Beams:eCM = 4.5

Beams:bmin = 4.6
Beams:bmax = 9.4
