# This is an example for RQMDv with the RMF potential with 1st order phase
# transition

Main:numberOfEvents = 3  ! number of events to generate
Random:seed = 3668752

Cascade:TimeStepSize = 0.2
Cascade:TimeStep = 400

MeanField:mode=13   # =13:box (for large system) =3 no box(small system)
MeanField:EoS= 51    # =51:RMF
#MeanField:EoS= 52   # =52:RMF+MD1 pot
#MeanField:EoS= 53   # =53:RMF+MD2 pot
#MeanField:EoS= 54   # =54:RMF+MD3 pot
MeanField:rho0= 0.16  # saturation density
MeanField:eosFileName=nlm07k380.dat  # RMF with m*/m=0.7, K=380 MeV

# RQMD2
#MeanField:optPotentialEvaluation=4
#MeanField:optDerivative = false
#MeanField:optP0dev = 0
#MeanField:optPotentialArg = 0
#MeanField:optMomentumDerivativeKernel=false

MeanField:PhaseTransition = true
MeanField:rhoCutPT=2.1    # [rho0]
MeanField:rhoShiftPT=2.0  # [rho0]
MeanField:VShiftPT=  0.0  # [MeV]

MeanField:outputPotential=true

111:mayDecay = off    ! pi0
221:mayDecay = off    ! eta
311:mayDecay = off    ! K0
321:mayDecay = off    ! K+
333:mayDecay = off    ! phi
3122:mayDecay = off   ! Lambda0
3212:mayDecay = off   ! Sigma0
3112:mayDecay = off   ! Sigma-
3222:mayDecay = off   ! Sigma+
3322:mayDecay = off   ! Xi0
3312:mayDecay = off   ! Xi-
3334:mayDecay = off   ! Omega-

Beams:beamA = 197Au
Beams:beamB = 197Au
Beams:eCM = 4.5

Beams:bmin = 4.6
Beams:bmax = 9.4


